2024-04-25 11:05:34.98 Server      Microsoft SQL Server 2019 (RTM-CU26) (KB5035123) - 15.0.4365.2 (X64) 
	Mar 29 2024 23:02:47 
	Copyright (C) 2019 Microsoft Corporation
	Developer Edition (64-bit) on Linux (Ubuntu 20.04.6 LTS) <X64>
2024-04-25 11:05:34.98 Server      UTC adjustment: 0:00
2024-04-25 11:05:34.98 Server      (c) Microsoft Corporation.
2024-04-25 11:05:34.98 Server      All rights reserved.
2024-04-25 11:05:34.98 Server      Server process ID is 392.
2024-04-25 11:05:34.98 Server      Logging SQL Server messages in file '/var/opt/mssql/log/errorlog'.
2024-04-25 11:05:34.98 Server      Registry startup parameters: 
	 -d /var/opt/mssql/data/master.mdf
	 -l /var/opt/mssql/data/mastlog.ldf
	 -e /var/opt/mssql/log/errorlog
2024-04-25 11:05:34.99 Server      SQL Server detected 1 sockets with 12 cores per socket and 24 logical processors per socket, 24 total logical processors; using 24 logical processors based on SQL Server licensing. This is an informational message; no user action is required.
2024-04-25 11:05:34.99 Server      SQL Server is starting at normal priority base (=7). This is an informational message only. No user action is required.
2024-04-25 11:05:34.99 Server      Detected 51351 MB of RAM. This is an informational message; no user action is required.
2024-04-25 11:05:34.99 Server      Using conventional memory in the memory manager.
2024-04-25 11:05:35.00 Server      Page exclusion bitmap is enabled.
2024-04-25 11:05:35.05 Server      Buffer pool extension is not supported on Linux platform.
2024-04-25 11:05:35.06 Server      Buffer Pool: Allocating 8388608 bytes for 8028160 hashPages.
2024-04-25 11:05:35.12 Server      Automatic soft-NUMA was enabled because SQL Server has detected hardware NUMA nodes with greater than 8 physical cores.
2024-04-25 11:05:35.16 Server      Buffer pool extension is already disabled. No action is necessary.
2024-04-25 11:05:35.28 Server      Successfully initialized the TLS configuration. Allowed TLS protocol versions are ['1.0 1.1 1.2']. Allowed TLS ciphers are ['ECDHE-ECDSA-AES128-GCM-SHA256:ECDHE-ECDSA-AES256-GCM-SHA384:ECDHE-RSA-AES128-GCM-SHA256:ECDHE-RSA-AES256-GCM-SHA384:ECDHE-ECDSA-AES128-SHA256:ECDHE-ECDSA-AES256-SHA384:ECDHE-ECDSA-AES256-SHA:ECDHE-ECDSA-AES128-SHA:AES256-GCM-SHA384:AES128-GCM-SHA256:AES256-SHA256:AES128-SHA256:AES256-SHA:AES128-SHA:!DHE-RSA-AES256-GCM-SHA384:!DHE-RSA-AES128-GCM-SHA256:!DHE-RSA-AES256-SHA:!DHE-RSA-AES128-SHA'].
2024-04-25 11:05:35.30 Server      Query Store settings initialized with enabled = 1, 
2024-04-25 11:05:35.31 Server      The maximum number of dedicated administrator connections for this instance is '1'
2024-04-25 11:05:35.32 Server      Node configuration: node 0: CPU mask: 0x0000000000555555:0 Active CPU mask: 0x0000000000555555:0. This message provides a description of the NUMA configuration for this computer. This is an informational message only. No user action is required.
2024-04-25 11:05:35.32 Server      Node configuration: node 1: CPU mask: 0x0000000000aaaaaa:0 Active CPU mask: 0x0000000000aaaaaa:0. This message provides a description of the NUMA configuration for this computer. This is an informational message only. No user action is required.
2024-04-25 11:05:35.37 Server      Using dynamic lock allocation.  Initial allocation of 2500 Lock blocks and 5000 Lock Owner blocks per node.  This is an informational message only.  No user action is required.
2024-04-25 11:05:35.37 Server      Lock partitioning is enabled.  This is an informational message only. No user action is required.
2024-04-25 11:05:35.38 Server      In-Memory OLTP initialized on standard machine.
2024-04-25 11:05:35.46 Server      CLR version v4.0.30319 loaded.
2024-04-25 11:05:35.48 Server      [INFO] Created Extended Events session 'hkenginexesession'
2024-04-25 11:05:35.48 Server      Database Instant File Initialization: enabled. For security and performance considerations see the topic 'Database Instant File Initialization' in SQL Server Books Online. This is an informational message only. No user action is required.
2024-04-25 11:05:35.51 Server      Total Log Writer threads: 4. This is an informational message; no user action is required.
2024-04-25 11:05:35.52 Server      clwb is selected for pmem flush operation.
2024-04-25 11:05:35.52 Server      Software Usage Metrics is disabled.
2024-04-25 11:05:35.53 spid11s     [1]. Feature Status: PVS: 0. CTR: 0. ConcurrentPFSUpdate: 1.
2024-04-25 11:05:35.53 spid11s     Starting up database 'master'.
2024-04-25 11:05:35.67 Server      Common language runtime (CLR) functionality initialized.
2024-04-25 11:05:35.76 spid11s     2 transactions rolled forward in database 'master' (1:0). This is an informational message only. No user action is required.
2024-04-25 11:05:35.78 spid11s     0 transactions rolled back in database 'master' (1:0). This is an informational message only. No user action is required.
2024-04-25 11:05:35.78 spid11s     Recovery is writing a checkpoint in database 'master' (1). This is an informational message only. No user action is required.
2024-04-25 11:05:35.84 spid11s     Resource governor reconfiguration succeeded.
2024-04-25 11:05:35.85 spid11s     SQL Server Audit is starting the audits. This is an informational message. No user action is required.
2024-04-25 11:05:35.85 spid11s     SQL Server Audit has started the audits. This is an informational message. No user action is required.
2024-04-25 11:05:35.97 spid11s     SQL Trace ID 1 was started by login "sa".
2024-04-25 11:05:35.98 spid11s     Server name is '0d690827e17d'. This is an informational message only. No user action is required.
2024-04-25 11:05:35.99 spid30s     Always On: The availability replica manager is starting. This is an informational message only. No user action is required.
2024-04-25 11:05:36.00 spid30s     Always On: The availability replica manager is waiting for the instance of SQL Server to allow client connections. This is an informational message only. No user action is required.
2024-04-25 11:05:36.00 spid32s     [5]. Feature Status: PVS: 0. CTR: 0. ConcurrentPFSUpdate: 1.
2024-04-25 11:05:36.00 spid14s     [32767]. Feature Status: PVS: 0. CTR: 0. ConcurrentPFSUpdate: 1.
2024-04-25 11:05:36.00 spid31s     [4]. Feature Status: PVS: 0. CTR: 0. ConcurrentPFSUpdate: 1.
2024-04-25 11:05:36.00 spid32s     Starting up database 'indigoMinimal'.
2024-04-25 11:05:36.00 spid14s     Starting up database 'mssqlsystemresource'.
2024-04-25 11:05:36.00 spid31s     Starting up database 'msdb'.
2024-04-25 11:05:36.00 spid14s     The resource database build version is 15.00.4365. This is an informational message only. No user action is required.
2024-04-25 11:05:36.01 spid27s     A self-generated certificate was successfully loaded for encryption.
2024-04-25 11:05:36.01 spid27s     Server is listening on [ 'any' <ipv6> 1433].
2024-04-25 11:05:36.02 spid27s     Server is listening on [ 'any' <ipv4> 1433].
2024-04-25 11:05:36.02 spid14s     [3]. Feature Status: PVS: 0. CTR: 0. ConcurrentPFSUpdate: 1.
2024-04-25 11:05:36.02 Server      Server is listening on [ ::1 <ipv6> 1434].
2024-04-25 11:05:36.02 spid14s     Starting up database 'model'.
2024-04-25 11:05:36.02 Server      Server is listening on [ 127.0.0.1 <ipv4> 1434].
2024-04-25 11:05:36.02 Server      Dedicated admin connection support was established for listening locally on port 1434.
2024-04-25 11:05:36.02 spid27s     Server is listening on [ ::1 <ipv6> 1431].
2024-04-25 11:05:36.02 spid27s     Server is listening on [ 127.0.0.1 <ipv4> 1431].
2024-04-25 11:05:36.02 spid27s     SQL Server is now ready for client connections. This is an informational message; no user action is required.
2024-04-25 11:05:36.35 spid32s     Parallel redo is started for database 'indigoMinimal' with worker pool size [12].
2024-04-25 11:05:36.37 spid32s     42 transactions rolled forward in database 'indigoMinimal' (5:0). This is an informational message only. No user action is required.
2024-04-25 11:05:36.40 spid14s     Clearing tempdb database.
2024-04-25 11:05:36.43 spid31s     0 transactions rolled back in database 'indigoMinimal' (5:0). This is an informational message only. No user action is required.
2024-04-25 11:05:36.43 spid31s     Parallel redo is shutdown for database 'indigoMinimal' with worker pool size [12].
2024-04-25 11:05:36.89 spid14s     [2]. Feature Status: PVS: 0. CTR: 0. ConcurrentPFSUpdate: 1.
2024-04-25 11:05:36.89 spid14s     Starting up database 'tempdb'.
2024-04-25 11:05:39.32 spid14s     The tempdb database has 8 data file(s).
2024-04-25 11:05:39.34 spid21s     The Service Broker endpoint is in disabled or stopped state.
2024-04-25 11:05:39.34 spid21s     The Database Mirroring endpoint is in disabled or stopped state.
2024-04-25 11:05:39.35 spid21s     Service Broker manager has started.
2024-04-25 11:05:39.35 spid11s     Recovery is complete. This is an informational message only. No user action is required.
2024-04-25 11:11:37.99 spid51      Attempting to load library 'xplog70.dll' into memory. This is an informational message only. No user action is required.
2024-04-25 11:11:38.01 spid51      Using 'xplog70.dll' version '2019.150.4365' to execute extended stored procedure 'xp_msver'. This is an informational message only; no user action is required.
