2024-04-15 23:18:32.22 Server      Microsoft SQL Server 2019 (RTM-CU26) (KB5035123) - 15.0.4365.2 (X64) 
	Mar 29 2024 23:02:47 
	Copyright (C) 2019 Microsoft Corporation
	Developer Edition (64-bit) on Linux (Ubuntu 20.04.6 LTS) <X64>
2024-04-15 23:18:32.23 Server      UTC adjustment: 0:00
2024-04-15 23:18:32.23 Server      (c) Microsoft Corporation.
2024-04-15 23:18:32.23 Server      All rights reserved.
2024-04-15 23:18:32.23 Server      Server process ID is 400.
2024-04-15 23:18:32.23 Server      Logging SQL Server messages in file '/var/opt/mssql/log/errorlog'.
2024-04-15 23:18:32.23 Server      Registry startup parameters: 
	 -d /var/opt/mssql/data/master.mdf
	 -l /var/opt/mssql/data/mastlog.ldf
	 -e /var/opt/mssql/log/errorlog
2024-04-15 23:18:32.23 Server      SQL Server detected 1 sockets with 12 cores per socket and 24 logical processors per socket, 24 total logical processors; using 24 logical processors based on SQL Server licensing. This is an informational message; no user action is required.
2024-04-15 23:18:32.24 Server      SQL Server is starting at normal priority base (=7). This is an informational message only. No user action is required.
2024-04-15 23:18:32.24 Server      Detected 25584 MB of RAM. This is an informational message; no user action is required.
2024-04-15 23:18:32.24 Server      Using conventional memory in the memory manager.
2024-04-15 23:18:32.24 Server      Page exclusion bitmap is enabled.
2024-04-15 23:18:32.29 Server      Buffer pool extension is not supported on Linux platform.
2024-04-15 23:18:32.29 Server      Buffer Pool: Allocating 4194304 bytes for 4014080 hashPages.
2024-04-15 23:18:32.34 Server      Automatic soft-NUMA was enabled because SQL Server has detected hardware NUMA nodes with greater than 8 physical cores.
2024-04-15 23:18:32.39 Server      Buffer pool extension is already disabled. No action is necessary.
2024-04-15 23:18:32.50 Server      Successfully initialized the TLS configuration. Allowed TLS protocol versions are ['1.0 1.1 1.2']. Allowed TLS ciphers are ['ECDHE-ECDSA-AES128-GCM-SHA256:ECDHE-ECDSA-AES256-GCM-SHA384:ECDHE-RSA-AES128-GCM-SHA256:ECDHE-RSA-AES256-GCM-SHA384:ECDHE-ECDSA-AES128-SHA256:ECDHE-ECDSA-AES256-SHA384:ECDHE-ECDSA-AES256-SHA:ECDHE-ECDSA-AES128-SHA:AES256-GCM-SHA384:AES128-GCM-SHA256:AES256-SHA256:AES128-SHA256:AES256-SHA:AES128-SHA:!DHE-RSA-AES256-GCM-SHA384:!DHE-RSA-AES128-GCM-SHA256:!DHE-RSA-AES256-SHA:!DHE-RSA-AES128-SHA'].
2024-04-15 23:18:32.52 Server      Query Store settings initialized with enabled = 1, 
2024-04-15 23:18:32.53 Server      The maximum number of dedicated administrator connections for this instance is '1'
2024-04-15 23:18:32.53 Server      Node configuration: node 0: CPU mask: 0x0000000000555555:0 Active CPU mask: 0x0000000000555555:0. This message provides a description of the NUMA configuration for this computer. This is an informational message only. No user action is required.
2024-04-15 23:18:32.53 Server      Node configuration: node 1: CPU mask: 0x0000000000aaaaaa:0 Active CPU mask: 0x0000000000aaaaaa:0. This message provides a description of the NUMA configuration for this computer. This is an informational message only. No user action is required.
2024-04-15 23:18:32.55 Server      Using dynamic lock allocation.  Initial allocation of 2500 Lock blocks and 5000 Lock Owner blocks per node.  This is an informational message only.  No user action is required.
2024-04-15 23:18:32.55 Server      Lock partitioning is enabled.  This is an informational message only. No user action is required.
2024-04-15 23:18:32.56 Server      In-Memory OLTP initialized on standard machine.
2024-04-15 23:18:32.60 Server      [INFO] Created Extended Events session 'hkenginexesession'
2024-04-15 23:18:32.60 Server      Database Instant File Initialization: enabled. For security and performance considerations see the topic 'Database Instant File Initialization' in SQL Server Books Online. This is an informational message only. No user action is required.
2024-04-15 23:18:32.60 Server      Total Log Writer threads: 4. This is an informational message; no user action is required.
2024-04-15 23:18:32.61 Server      clwb is selected for pmem flush operation.
2024-04-15 23:18:32.61 Server      Software Usage Metrics is disabled.
2024-04-15 23:18:32.61 spid12s     [1]. Feature Status: PVS: 0. CTR: 0. ConcurrentPFSUpdate: 1.
2024-04-15 23:18:32.62 spid12s     Starting up database 'master'.
2024-04-15 23:18:32.66 Server      CLR version v4.0.30319 loaded.
2024-04-15 23:18:32.80 Server      Common language runtime (CLR) functionality initialized.
2024-04-15 23:18:32.81 spid12s     11 transactions rolled forward in database 'master' (1:0). This is an informational message only. No user action is required.
2024-04-15 23:18:32.82 spid12s     0 transactions rolled back in database 'master' (1:0). This is an informational message only. No user action is required.
2024-04-15 23:18:32.82 spid12s     Recovery is writing a checkpoint in database 'master' (1). This is an informational message only. No user action is required.
2024-04-15 23:18:32.88 spid12s     Resource governor reconfiguration succeeded.
2024-04-15 23:18:32.88 spid12s     SQL Server Audit is starting the audits. This is an informational message. No user action is required.
2024-04-15 23:18:32.89 spid12s     SQL Server Audit has started the audits. This is an informational message. No user action is required.
2024-04-15 23:18:32.96 spid12s     SQL Trace ID 1 was started by login "sa".
2024-04-15 23:18:32.96 spid12s     Server name is '0d690827e17d'. This is an informational message only. No user action is required.
2024-04-15 23:18:32.97 spid31s     Always On: The availability replica manager is starting. This is an informational message only. No user action is required.
2024-04-15 23:18:32.97 spid30s     [4]. Feature Status: PVS: 0. CTR: 0. ConcurrentPFSUpdate: 1.
2024-04-15 23:18:32.97 spid14s     [32767]. Feature Status: PVS: 0. CTR: 0. ConcurrentPFSUpdate: 1.
2024-04-15 23:18:32.97 spid32s     [5]. Feature Status: PVS: 0. CTR: 0. ConcurrentPFSUpdate: 1.
2024-04-15 23:18:32.97 spid31s     Always On: The availability replica manager is waiting for the instance of SQL Server to allow client connections. This is an informational message only. No user action is required.
2024-04-15 23:18:32.98 spid30s     Starting up database 'msdb'.
2024-04-15 23:18:32.98 spid14s     Starting up database 'mssqlsystemresource'.
2024-04-15 23:18:32.98 spid32s     Starting up database 'indigoMinimal'.
2024-04-15 23:18:32.98 spid14s     The resource database build version is 15.00.4365. This is an informational message only. No user action is required.
2024-04-15 23:18:32.99 spid14s     [3]. Feature Status: PVS: 0. CTR: 0. ConcurrentPFSUpdate: 1.
2024-04-15 23:18:32.99 spid14s     Starting up database 'model'.
2024-04-15 23:18:33.01 spid27s     A self-generated certificate was successfully loaded for encryption.
2024-04-15 23:18:33.01 spid27s     Server is listening on [ 'any' <ipv6> 1433].
2024-04-15 23:18:33.01 spid27s     Server is listening on [ 'any' <ipv4> 1433].
2024-04-15 23:18:33.01 Server      Server is listening on [ ::1 <ipv6> 1434].
2024-04-15 23:18:33.01 Server      Server is listening on [ 127.0.0.1 <ipv4> 1434].
2024-04-15 23:18:33.01 Server      Dedicated admin connection support was established for listening locally on port 1434.
2024-04-15 23:18:33.01 spid27s     Server is listening on [ ::1 <ipv6> 1431].
2024-04-15 23:18:33.02 spid27s     Server is listening on [ 127.0.0.1 <ipv4> 1431].
2024-04-15 23:18:33.02 spid27s     SQL Server is now ready for client connections. This is an informational message; no user action is required.
2024-04-15 23:18:33.29 spid32s     Parallel redo is started for database 'indigoMinimal' with worker pool size [12].
2024-04-15 23:18:33.31 spid32s     8 transactions rolled forward in database 'indigoMinimal' (5:0). This is an informational message only. No user action is required.
2024-04-15 23:18:33.34 spid14s     Clearing tempdb database.
2024-04-15 23:18:33.37 spid30s     0 transactions rolled back in database 'indigoMinimal' (5:0). This is an informational message only. No user action is required.
2024-04-15 23:18:33.37 spid30s     Parallel redo is shutdown for database 'indigoMinimal' with worker pool size [12].
2024-04-15 23:18:33.79 spid14s     [2]. Feature Status: PVS: 0. CTR: 0. ConcurrentPFSUpdate: 1.
2024-04-15 23:18:33.80 spid14s     Starting up database 'tempdb'.
2024-04-15 23:18:35.81 spid14s     The tempdb database has 8 data file(s).
2024-04-15 23:18:35.82 spid30s     The Service Broker endpoint is in disabled or stopped state.
2024-04-15 23:18:35.82 spid30s     The Database Mirroring endpoint is in disabled or stopped state.
2024-04-15 23:18:35.83 spid30s     Service Broker manager has started.
2024-04-15 23:18:35.83 spid12s     Recovery is complete. This is an informational message only. No user action is required.
2024-04-15 23:18:42.65 spid54      Attempting to load library 'xplog70.dll' into memory. This is an informational message only. No user action is required.
2024-04-15 23:18:42.66 spid54      Using 'xplog70.dll' version '2019.150.4365' to execute extended stored procedure 'xp_msver'. This is an informational message only; no user action is required.
2024-04-15 23:18:42.79 spid54      Attempting to load library 'xpsqlbot.dll' into memory. This is an informational message only. No user action is required.
2024-04-15 23:18:42.79 spid54      Using 'xpsqlbot.dll' version '2019.150.4365' to execute extended stored procedure 'xp_qv'. This is an informational message only; no user action is required.
2024-04-15 23:18:47.21 spid52      Attempting to load library 'xpstar.dll' into memory. This is an informational message only. No user action is required.
2024-04-15 23:18:47.22 spid52      Using 'xpstar.dll' version '2019.150.4365' to execute extended stored procedure 'xp_instance_regread'. This is an informational message only; no user action is required.
