2024-04-26 21:54:35.61 Server      Microsoft SQL Server 2019 (RTM-CU26) (KB5035123) - 15.0.4365.2 (X64) 
	Mar 29 2024 23:02:47 
	Copyright (C) 2019 Microsoft Corporation
	Developer Edition (64-bit) on Linux (Ubuntu 20.04.6 LTS) <X64>
2024-04-26 21:54:35.61 Server      UTC adjustment: 0:00
2024-04-26 21:54:35.61 Server      (c) Microsoft Corporation.
2024-04-26 21:54:35.61 Server      All rights reserved.
2024-04-26 21:54:35.61 Server      Server process ID is 396.
2024-04-26 21:54:35.61 Server      Logging SQL Server messages in file '/var/opt/mssql/log/errorlog'.
2024-04-26 21:54:35.61 Server      Registry startup parameters: 
	 -d /var/opt/mssql/data/master.mdf
	 -l /var/opt/mssql/data/mastlog.ldf
	 -e /var/opt/mssql/log/errorlog
2024-04-26 21:54:35.62 Server      SQL Server detected 1 sockets with 12 cores per socket and 24 logical processors per socket, 24 total logical processors; using 24 logical processors based on SQL Server licensing. This is an informational message; no user action is required.
2024-04-26 21:54:35.62 Server      SQL Server is starting at normal priority base (=7). This is an informational message only. No user action is required.
2024-04-26 21:54:35.62 Server      Detected 51351 MB of RAM. This is an informational message; no user action is required.
2024-04-26 21:54:35.62 Server      Using conventional memory in the memory manager.
2024-04-26 21:54:35.63 Server      Page exclusion bitmap is enabled.
2024-04-26 21:54:35.68 Server      Buffer pool extension is not supported on Linux platform.
2024-04-26 21:54:35.68 Server      Buffer Pool: Allocating 8388608 bytes for 8028160 hashPages.
2024-04-26 21:54:35.74 Server      Automatic soft-NUMA was enabled because SQL Server has detected hardware NUMA nodes with greater than 8 physical cores.
2024-04-26 21:54:35.78 Server      Buffer pool extension is already disabled. No action is necessary.
2024-04-26 21:54:35.90 Server      Successfully initialized the TLS configuration. Allowed TLS protocol versions are ['1.0 1.1 1.2']. Allowed TLS ciphers are ['ECDHE-ECDSA-AES128-GCM-SHA256:ECDHE-ECDSA-AES256-GCM-SHA384:ECDHE-RSA-AES128-GCM-SHA256:ECDHE-RSA-AES256-GCM-SHA384:ECDHE-ECDSA-AES128-SHA256:ECDHE-ECDSA-AES256-SHA384:ECDHE-ECDSA-AES256-SHA:ECDHE-ECDSA-AES128-SHA:AES256-GCM-SHA384:AES128-GCM-SHA256:AES256-SHA256:AES128-SHA256:AES256-SHA:AES128-SHA:!DHE-RSA-AES256-GCM-SHA384:!DHE-RSA-AES128-GCM-SHA256:!DHE-RSA-AES256-SHA:!DHE-RSA-AES128-SHA'].
2024-04-26 21:54:35.91 Server      Query Store settings initialized with enabled = 1, 
2024-04-26 21:54:35.92 Server      The maximum number of dedicated administrator connections for this instance is '1'
2024-04-26 21:54:35.92 Server      Node configuration: node 0: CPU mask: 0x0000000000555555:0 Active CPU mask: 0x0000000000555555:0. This message provides a description of the NUMA configuration for this computer. This is an informational message only. No user action is required.
2024-04-26 21:54:35.92 Server      Node configuration: node 1: CPU mask: 0x0000000000aaaaaa:0 Active CPU mask: 0x0000000000aaaaaa:0. This message provides a description of the NUMA configuration for this computer. This is an informational message only. No user action is required.
2024-04-26 21:54:35.95 Server      Using dynamic lock allocation.  Initial allocation of 2500 Lock blocks and 5000 Lock Owner blocks per node.  This is an informational message only.  No user action is required.
2024-04-26 21:54:35.95 Server      Lock partitioning is enabled.  This is an informational message only. No user action is required.
2024-04-26 21:54:35.95 Server      In-Memory OLTP initialized on standard machine.
2024-04-26 21:54:36.04 Server      [INFO] Created Extended Events session 'hkenginexesession'
2024-04-26 21:54:36.04 Server      Database Instant File Initialization: enabled. For security and performance considerations see the topic 'Database Instant File Initialization' in SQL Server Books Online. This is an informational message only. No user action is required.
2024-04-26 21:54:36.05 Server      CLR version v4.0.30319 loaded.
2024-04-26 21:54:36.05 Server      Total Log Writer threads: 4. This is an informational message; no user action is required.
2024-04-26 21:54:36.05 Server      clwb is selected for pmem flush operation.
2024-04-26 21:54:36.05 Server      Software Usage Metrics is disabled.
2024-04-26 21:54:36.07 spid12s     [1]. Feature Status: PVS: 0. CTR: 0. ConcurrentPFSUpdate: 1.
2024-04-26 21:54:36.07 spid12s     Starting up database 'master'.
2024-04-26 21:54:36.20 Server      Common language runtime (CLR) functionality initialized.
2024-04-26 21:54:36.30 spid12s     35 transactions rolled forward in database 'master' (1:0). This is an informational message only. No user action is required.
2024-04-26 21:54:36.32 spid12s     0 transactions rolled back in database 'master' (1:0). This is an informational message only. No user action is required.
2024-04-26 21:54:36.32 spid12s     Recovery is writing a checkpoint in database 'master' (1). This is an informational message only. No user action is required.
2024-04-26 21:54:36.38 spid12s     Resource governor reconfiguration succeeded.
2024-04-26 21:54:36.38 spid12s     SQL Server Audit is starting the audits. This is an informational message. No user action is required.
2024-04-26 21:54:36.38 spid12s     SQL Server Audit has started the audits. This is an informational message. No user action is required.
2024-04-26 21:54:36.50 spid12s     SQL Trace ID 1 was started by login "sa".
2024-04-26 21:54:36.51 spid12s     Server name is '0d690827e17d'. This is an informational message only. No user action is required.
2024-04-26 21:54:36.52 spid31s     Always On: The availability replica manager is starting. This is an informational message only. No user action is required.
2024-04-26 21:54:36.52 spid14s     [32767]. Feature Status: PVS: 0. CTR: 0. ConcurrentPFSUpdate: 1.
2024-04-26 21:54:36.52 spid32s     [5]. Feature Status: PVS: 0. CTR: 0. ConcurrentPFSUpdate: 1.
2024-04-26 21:54:36.52 spid30s     [4]. Feature Status: PVS: 0. CTR: 0. ConcurrentPFSUpdate: 1.
2024-04-26 21:54:36.52 spid31s     Always On: The availability replica manager is waiting for the instance of SQL Server to allow client connections. This is an informational message only. No user action is required.
2024-04-26 21:54:36.52 spid14s     Starting up database 'mssqlsystemresource'.
2024-04-26 21:54:36.52 spid32s     Starting up database 'indigoMinimal'.
2024-04-26 21:54:36.52 spid30s     Starting up database 'msdb'.
2024-04-26 21:54:36.52 spid14s     The resource database build version is 15.00.4365. This is an informational message only. No user action is required.
2024-04-26 21:54:36.54 spid27s     A self-generated certificate was successfully loaded for encryption.
2024-04-26 21:54:36.54 spid14s     [3]. Feature Status: PVS: 0. CTR: 0. ConcurrentPFSUpdate: 1.
2024-04-26 21:54:36.54 spid14s     Starting up database 'model'.
2024-04-26 21:54:36.54 spid27s     Server is listening on [ 'any' <ipv6> 1433].
2024-04-26 21:54:36.54 spid27s     Server is listening on [ 'any' <ipv4> 1433].
2024-04-26 21:54:36.54 Server      Server is listening on [ ::1 <ipv6> 1434].
2024-04-26 21:54:36.54 Server      Server is listening on [ 127.0.0.1 <ipv4> 1434].
2024-04-26 21:54:36.54 Server      Dedicated admin connection support was established for listening locally on port 1434.
2024-04-26 21:54:36.55 spid27s     Server is listening on [ ::1 <ipv6> 1431].
2024-04-26 21:54:36.55 spid27s     Server is listening on [ 127.0.0.1 <ipv4> 1431].
2024-04-26 21:54:36.55 spid27s     SQL Server is now ready for client connections. This is an informational message; no user action is required.
2024-04-26 21:54:36.87 spid32s     Parallel redo is started for database 'indigoMinimal' with worker pool size [12].
2024-04-26 21:54:36.89 spid32s     46 transactions rolled forward in database 'indigoMinimal' (5:0). This is an informational message only. No user action is required.
2024-04-26 21:54:36.92 spid14s     Clearing tempdb database.
2024-04-26 21:54:36.95 spid30s     0 transactions rolled back in database 'indigoMinimal' (5:0). This is an informational message only. No user action is required.
2024-04-26 21:54:36.96 spid30s     Recovery is writing a checkpoint in database 'indigoMinimal' (5). This is an informational message only. No user action is required.
2024-04-26 21:54:36.97 spid30s     Parallel redo is shutdown for database 'indigoMinimal' with worker pool size [12].
2024-04-26 21:54:37.49 spid14s     [2]. Feature Status: PVS: 0. CTR: 0. ConcurrentPFSUpdate: 1.
2024-04-26 21:54:37.49 spid14s     Starting up database 'tempdb'.
2024-04-26 21:54:39.43 spid14s     The tempdb database has 8 data file(s).
2024-04-26 21:54:39.44 spid30s     The Service Broker endpoint is in disabled or stopped state.
2024-04-26 21:54:39.44 spid30s     The Database Mirroring endpoint is in disabled or stopped state.
2024-04-26 21:54:39.45 spid30s     Service Broker manager has started.
2024-04-26 21:54:39.45 spid12s     Recovery is complete. This is an informational message only. No user action is required.
2024-04-26 22:00:19.77 spid51      Attempting to load library 'xplog70.dll' into memory. This is an informational message only. No user action is required.
2024-04-26 22:00:19.79 spid51      Using 'xplog70.dll' version '2019.150.4365' to execute extended stored procedure 'xp_msver'. This is an informational message only; no user action is required.
2024-04-26 23:59:26.29 spid56      Attempting to load library 'xpsqlbot.dll' into memory. This is an informational message only. No user action is required.
2024-04-26 23:59:26.29 spid56      Using 'xpsqlbot.dll' version '2019.150.4365' to execute extended stored procedure 'xp_qv'. This is an informational message only; no user action is required.
